Pivot tables
…
group_by multiple variables

And summarize by multiple variables

We used mean() to calculate the mean size of lobsters by each site and year, and used na.rm = TRUE to calculate mean despite having missing values in our raw data.

siteyear_summary <- lobsters %>% 
  group_by(site, year) %>% 
  summarize(count_by_siteyear = n(), 
            mean_size_mm = mean(size_mm, na.rm = TRUE),
            sd_size_mm = sd(size_mm, na.rm = TRUE))

siteyear_summary

## # A tibble: 25 x 5
## # Groups:   site [5]
##    site   year count_by_siteyear mean_size_mm sd_size_mm
##    <chr> <dbl>             <int>        <dbl>      <dbl>
##  1 aque   2012                38         71        10.2 
##  2 aque   2013                32         72.1      12.3 
##  3 aque   2014               100         76.9       9.32
##  4 aque   2015                83         68.5      12.6 
##  5 aque   2016                48         68.7      12.5 
##  6 carp   2012                78         74.4      14.6 
##  7 carp   2013                93         76.6       8.71
##  8 carp   2014                79         79.1       8.57
##  9 carp   2015                90         70.7      14.6 
## 10 carp   2016               231         68.9      12.5 
## #  with 15 more rows
…
Calculate the median size_mm (?median)

Create and ggsave a plot

siteyear_summary <- lobsters %>% 
  group_by(site, year) %>% 
  summarize(count_by_siteyear = n(), 
            mean_size_mm = mean(size_mm, na.rm = TRUE),
            sd_size_mm = sd(size_mm, na.rm = TRUE),
            median_size_mm = median(size_mm, na.rm = TRUE))

siteyear_summary

## # A tibble: 25 x 6
## # Groups:   site [5]
##    site   year count_by_siteyear mean_size_mm sd_size_mm median_size_mm
##    <chr> <dbl>             <int>        <dbl>      <dbl>          <dbl>
##  1 aque   2012                38         71        10.2            70  
##  2 aque   2013                32         72.1      12.3            75  
##  3 aque   2014               100         76.9       9.32           75.5
##  4 aque   2015                83         68.5      12.6            70  
##  5 aque   2016                48         68.7      12.5            71  
##  6 carp   2012                78         74.4      14.6            74.5
##  7 carp   2013                93         76.6       8.71           76  
##  8 carp   2014                79         79.1       8.57           79  
##  9 carp   2015                90         70.7      14.6            70  
## 10 carp   2016               231         68.9      12.5            70  
## #  with 15 more rows
…
